[
  {
    "name": "Indices",
    "id": "1"
  },
  {
    "name": "Forex",
    "id": "2"
  },
  {
    "name": "Crypto",
    "id": "3"
  },
  {
    "name": "Shares",
    "id": "4"
  },
  {
    "name": "Commodities",
    "id": "5"
  },
  {
    "name": "Bonds and rates",
    "id": "6"
  },
  {
    "name": "ETFs",
    "id": "7"
  },
  {
    "name": "Options",
    "id": "8"
  }
]